,song_id,genre,tempo,beats,chromagram,rmse,centroid,bandwidth,rolloff,zcr,mfcc1,mfcc2,mfcc3,mfcc4,mfcc5,mfcc6,mfcc7,mfcc8,mfcc9,mfcc10,mfcc11,mfcc12,mfcc13,mfcc14,mfcc15,mfcc16,mfcc17,mfcc18,mfcc19,mfcc20
0,K6oYyG0KcvQ,0,143.5546875,45950,0.363340642,0.1230281,2040.720552,2481.778613,4552.005808,0.069688921,-202.0376055,90.06094481,25.77910316,35.41017902,11.31007051,16.6426792,6.020183306,2.826350457,3.029316849,4.542106739,-1.313433031,0.758777627,-1.490878141,0.951319811,3.843579642,5.354790562,-5.220667211,1.787448356,-3.352054379,-3.111214119
1,Oe-BV7OYepI,0,80.74951172,23858,0.407114229,0.112600513,2345.442511,2289.395648,4702.413232,0.119442588,-149.0249787,83.93212966,-11.23834497,34.07836697,1.955810274,8.42322679,0.287784824,7.639555172,0.876231474,3.36750377,-0.105336495,4.818235599,-2.716008344,0.042309798,-4.534590593,-1.210948255,-5.990836875,0.272244297,-3.331452189,3.880025652
2,Mwo33Sy0vWk,0,143.5546875,45143,0.39386744,0.095522314,2358.75954,2621.455356,5192.485268,0.08802819,-186.5406432,80.05798787,3.623271636,20.42418348,18.27190453,10.04161758,5.345260431,7.798010281,-2.444185264,4.212792914,-4.374389172,5.536863922,-0.0822643,3.685146472,0.320054419,1.976892131,-8.173827448,3.244877439,-2.160099805,1.432501099
3,0k27suBmV0U,0,161.4990234,49197,0.338278015,0.164063171,1835.904488,1919.490651,3598.569907,0.081980608,-157.7724556,95.74428272,-28.52198162,36.12682557,2.868579844,-5.033829749,11.59976064,3.175148749,9.461422678,-1.070893917,2.072353973,-1.237470522,-0.452627539,12.50462874,1.184305732,8.237667444,3.972821181,2.450790661,-3.142281434,4.599273146
4,vdB-8eLEW8g,0,151.9990809,49130,0.377020767,0.118500262,2074.183225,2346.834674,4552.322473,0.078953793,-171.6995646,88.8547979,10.33560784,34.68696107,3.845245535,20.13423352,4.283863248,14.10475455,-2.112296252,7.755399209,-6.540341948,-0.857063936,-6.517368851,-6.347832227,-4.44204093,2.054247753,-8.714288493,2.068211514,-2.664697913,1.594298519
5,QI-m8z6Ibws,0,123.046875,33794,0.394573777,0.100464433,1541.506179,1937.277197,3079.389713,0.064394546,-208.7996318,125.393959,-7.61993992,16.95140276,19.09508495,7.73967309,2.337471619,7.449057152,2.667464141,9.032752942,2.949955988,9.058047912,-2.499160959,4.599508331,-7.068317193,-0.098095232,-5.482149028,3.721766426,-2.447925975,4.786916278
6,K-XmNm0inyM,0,129.1992188,41687,0.389859713,0.12078926,1741.296071,2088.505915,3683.127729,0.065264911,-211.0355798,99.87281911,6.151913023,46.7584322,16.94951611,16.88808828,3.811238534,8.288762554,1.874310923,3.647957425,-2.892786057,3.599576587,-2.611178314,-2.789573933,-4.272290274,0.30453895,-2.311418915,5.955028211,2.909948472,6.824191967
7,tm9KHjxSzxw,0,143.5546875,43938,0.36557066,0.145153642,1215.969422,1612.338568,2417.71038,0.048680734,-195.4627009,129.4937599,-6.662718602,35.116569,19.77347047,10.51428395,0.134907199,16.11084122,6.701974568,8.220280311,4.272462265,2.969867962,-2.361117324,2.283666842,0.627099858,1.342149747,-3.851978972,2.180234352,1.019508654,-1.72002892
8,pHlSE9j5FGY,0,123.046875,38090,0.640123876,0.02211553,1790.945342,2381.605898,4121.550078,0.062431595,-319.5808745,99.85701097,11.5310628,30.73062199,8.189460685,16.41414433,8.059292444,13.58110188,-0.526353614,6.109918727,4.361667255,6.328647373,-0.813436954,7.451672988,-2.078473327,3.820957296,-0.407947252,1.946222305,-3.786152895,5.30022266
9,WT4iJ2jZv7M,0,151.9990809,49146,0.396956938,0.132496879,1704.565011,1960.49081,3465.904042,0.072249752,-179.1213155,113.3460931,-9.344077287,41.97852563,20.16950223,17.07831507,2.442891068,9.241998662,5.604972394,6.486093542,-0.329573996,8.168680737,0.710078013,5.179619352,-3.352833171,-1.861409043,-2.826192916,0.709637639,-6.574756525,-3.112332193
10,DMkasTMiJBI,0,73.828125,22937,0.374213326,0.116758078,1845.955314,1663.86966,3539.603597,0.100637336,-179.179366,110.0434259,-34.05620859,61.04782695,-4.422463809,14.8775593,-2.649216289,0.971036887,-1.65950869,1.646557556,-5.425454075,-1.009587185,-4.315737593,-3.364050229,-4.720197117,0.035103105,-2.630759416,4.260446606,2.153923772,5.149686944
11,RCHTAu4In70,0,129.1992188,41628,0.395237314,0.110616446,2009.959235,2182.783961,4101.725197,0.092866407,-181.5914484,107.2047572,-9.625268266,9.408846982,8.299213164,11.59935367,4.414063888,0.703463362,-1.27609783,2.603070108,0.515919593,9.725449105,1.631089855,2.406679527,-0.461589477,3.336874258,-3.23737964,4.302643671,-0.975945508,1.221015102
12,6wiEjEUMaUA,0,135.9991776,43224,0.451537989,0.280579209,3334.68607,2986.23819,7007.315961,0.15305274,-66.34476957,47.02201004,13.57395975,26.78576303,9.6641432,13.29133595,8.676418442,8.738706036,2.450150563,7.710503235,-2.427060522,4.602478348,-0.926547115,6.486722195,-1.63950794,1.124474709,-3.455159056,2.812902625,-3.552715949,2.185044481
13,qP3VsZ7QD08,0,143.5546875,45654,0.311557907,0.141020045,2990.632508,2694.848289,6136.45456,0.148573554,-104.242363,64.23371843,-6.122837169,-6.234750519,-12.18790363,5.13495156,-17.47304056,-0.69809796,-7.398736823,-4.085443729,-1.976742738,1.471392057,-0.372155853,-1.633817712,-1.291401505,0.595521151,-5.386633934,-1.49591682,-2.60044641,5.164140972
14,tgGoNzVfNf8,0,143.5546875,46577,0.390956855,0.107462749,2070.331109,2342.015118,4449.164763,0.087067879,-162.6064172,100.538785,2.757480165,22.52491822,7.521365707,11.42895737,-2.391856204,11.28777558,1.21256595,5.491730946,1.725440893,4.243192564,-5.096114704,0.262110839,-5.077552284,-0.398608394,-3.465379179,0.52129812,-7.004148184,-1.462851586
15,PMkhsiwgh4M,0,151.9990809,46403,0.393503599,0.174640432,2736.360125,2516.377408,5630.090956,0.127422888,-93.69559489,59.967528,6.915009389,33.92020138,4.79889662,16.3760375,-8.239699891,11.93022835,-1.789181419,9.178238291,1.986430975,5.360060771,3.701839369,4.329180192,-0.458119644,3.000871645,-4.068360492,4.39359051,-0.1979387,5.283903909
16,wlqB13iJu2o,0,123.046875,37521,0.297566924,0.075855628,1594.672291,1734.92013,3143.472659,0.079610252,-246.1220536,103.2854453,-27.94715352,5.409972425,16.11227931,5.887278592,9.2127794,9.350687251,4.323492858,11.3983391,-3.779862973,3.361008079,-2.353790675,7.824868877,-0.740664755,2.166523196,-0.600385377,4.648541269,-0.656732508,2.246930976
17,_4jIlm8WvIo,0,161.4990234,48217,0.341093238,0.082037389,1909.739321,2200.218697,3911.12635,0.079460593,-224.3196385,99.00000348,3.882980746,16.00601479,8.196352423,12.69593295,3.071711104,10.18455721,-2.426595658,2.300314077,-1.037127474,2.652379252,-0.707938093,2.511361428,-4.074575479,4.931435253,1.416158303,7.125397561,-0.63272252,3.24261401
18,FL_BshgpNmo,0,129.1992188,40033,0.432392289,0.14496024,1734.947665,2113.379235,3566.136769,0.069569874,-175.5903403,114.2568445,-1.430758924,14.29551874,17.03663032,16.63842847,2.129211207,6.179056137,6.049685956,10.42845668,6.020997733,3.875103621,-1.143766014,2.692095369,-2.17723745,1.206321808,-2.560638196,3.743626684,-4.600887302,-1.899629889
19,rYeWnbmFUhQ,0,151.9990809,47351,0.448873422,0.249167383,2684.616678,2655.573777,5666.849067,0.099971429,-82.58802757,65.36949034,13.36745194,36.78448318,13.58927325,17.53255243,10.49660048,12.63113959,-4.829064809,8.707028719,-0.282494254,8.875136905,4.97496887,7.422376877,-0.94101539,2.252373948,-0.533606633,4.894179017,-1.559435585,3.854702479
20,VpGKcyL_0KQ,0,129.1992188,39629,0.424726985,0.167406097,2044.859296,2470.25115,4570.172365,0.067601632,-169.925047,83.7375105,14.88391083,35.011352,17.97939538,19.26272635,8.32546399,12.35470017,7.763080933,7.352212294,0.767436875,5.158264214,-1.815934583,3.996779637,5.650046985,3.737408687,-2.596642233,3.999094656,-4.93291842,1.345669312
21,yDuQBZqQL7g,0,135.9991776,40719,0.395106988,0.163964093,2156.204221,2254.901139,4530.222606,0.090926132,-110.2206785,94.75186777,-15.04078557,26.3030577,0.230540175,17.44578108,0.529400066,15.46291856,0.942584065,1.510343166,-2.956555374,3.753499424,0.347502093,6.186449628,-2.70841365,0.379795984,-0.807575019,2.387229776,2.900268368,6.401854171
22,t4tgyyDKhsM,0,143.5546875,45694,0.411137094,0.163883671,2889.823444,2538.126544,5793.381635,0.160706889,-99.01882346,60.77180796,-4.147818139,21.4444129,-3.078230732,12.65905811,-2.538025086,10.38172892,-1.93627849,11.6820501,-2.124997649,7.34241835,-3.749947707,3.255258026,-4.766601567,0.27898299,-6.350578844,3.320474528,-5.463425495,0.642459817
23,jHUQg5rvBEg,0,143.5546875,45550,0.343232067,0.196225047,2163.501599,2388.349763,4700.488243,0.081874788,-94.36565373,90.57396123,-7.062879334,20.02037165,6.565415894,10.3128448,-4.983783566,10.22150403,-2.696230121,2.052803779,3.423657011,6.877811047,-0.838161649,4.728235898,-1.501842316,0.837548795,-2.823692447,0.626458754,-5.136678991,-2.291553935
24,sJW-aocSxa0,0,151.9990809,47666,0.371437712,0.147852704,1298.764636,1575.90749,2334.360884,0.063730529,-152.7546402,148.1363661,-27.88580919,19.25855482,7.451301579,15.16510411,4.675612069,6.675150265,-5.485445142,0.618785541,-3.449127275,1.718516879,-1.317106683,-0.581185353,-0.911754045,-1.517488665,-1.87891245,-0.550671519,-1.045710031,1.569161801
25,scs6mWiHnyA,0,143.5546875,44257,0.376623551,0.145379007,1854.214643,2224.958242,3927.001254,0.07060955,-138.7513476,105.389093,-1.048214585,25.61729832,9.052530967,10.04394198,-0.920609712,4.603044018,1.199160559,6.829557856,-3.485208822,7.470542085,-0.893069668,3.380302324,-1.378212352,-2.939262448,-8.092764586,-1.027056089,-6.173002841,-0.336688696
26,7faOF6C8bZg,0,143.5546875,45752,0.383120369,0.117094696,2025.371359,2389.206535,4412.331653,0.072120501,-198.4140767,89.63878734,22.65546517,42.59150196,11.83891436,10.75585429,0.422821547,3.62432903,0.950878172,3.000202754,-1.98218651,4.202738222,-3.811945552,-3.250342404,-0.366376241,2.415906595,-9.166044129,2.282151447,-3.906565219,-1.499405241
27,9Lz6HPz9FCk,0,123.046875,37379,0.397500623,0.093033262,1677.812139,2042.939997,3555.6285,0.061567277,-208.0205524,113.4051172,-2.172405019,32.05202473,12.50536448,13.57798726,-1.469465715,5.4399973,-1.262073286,3.078342012,-0.189817432,7.562196907,1.144595462,4.948043057,-1.336814675,4.014661236,-2.472824389,4.514954197,-1.477007942,1.218284414
28,I95IsZFcdCk,0,151.9990809,47571,0.357153053,0.068678528,2220.844798,2574.233479,5075.727641,0.083957164,-188.0347334,100.9614118,18.53683851,17.7339797,0.052340327,16.41211696,1.66251282,2.192095874,-2.216957894,6.663391669,0.060596895,0.677414201,-8.319588442,-3.886601102,-9.392311958,-1.504457667,-9.232659594,-0.310505885,-6.886968152,1.925277824
29,mDODX5_n3Us,0,143.5546875,43765,0.406352511,0.160519645,2034.24507,2201.30008,4315.69057,0.082716431,-188.0745375,77.97231807,-7.755657847,41.8421086,20.17135118,17.26056819,4.028856057,9.296005334,4.989940657,0.31533367,-5.012303195,3.759648178,-2.717753958,4.424348736,-3.259702947,2.305634233,-2.47815563,3.752106449,-1.490405051,1.706970316
0,1w7OgIMMRc4,1,129.1992188,39087,0.266961903,0.05730965,2374.993815,1967.251829,4477.28126,0.124841649,-197.4517906,73.62539503,-44.24125395,39.93980765,-24.76388116,-0.869624156,-11.49686053,-14.02606285,-5.12709844,-13.72962229,-4.454403554,-2.375162192,-5.889180259,-7.097836142,-21.13704296,5.078155292,-7.384709012,7.260432126,4.837297899,0.552506034
1,hTWKbfoikeg,1,117.4538352,36296,0.494622319,0.167945892,2228.274082,2140.829133,4448.514767,0.110757078,-105.251895,83.38802611,-17.58824408,44.11830698,9.379850237,10.86463665,2.612098871,7.458505568,4.900823754,3.425459771,-1.553697989,3.01991846,-5.599196583,-1.676067463,-5.511866127,-1.387826701,-7.981830391,-1.0976385,-1.746443359,-0.069223783
2,djV11Xbc914,1,135.9991776,40720,0.254719016,0.036145739,1233.772247,1417.823628,2315.427666,0.067265655,-331.9814595,147.762349,-33.08221831,37.49967597,19.02265632,-4.589493812,-11.43467703,-9.316600101,-17.01238561,-16.51438202,-6.405645637,-2.107802009,-11.5890478,-9.671393947,-10.87501314,-6.920097864,-12.58963735,-6.43264116,-2.475959171,-4.06555661
3,9jK-NcRmVcw,1,95.703125,24074,0.378608376,0.119438231,2148.182843,2159.083568,4264.190882,0.102526213,-84.89589363,102.2113845,-24.82520614,30.85110858,-0.519605665,7.186839015,-11.68428899,5.619777144,-5.854597608,1.634906429,-8.397087695,-0.647335789,-6.376188796,-0.103812237,-7.883373612,-3.264684386,-9.827626654,-0.055319613,-6.398737702,-2.514654578
4,OMOGaugKpzs,1,92.28515625,26586,0.532440635,0.112720169,3083.375184,2537.131811,5941.86407,0.188755094,-155.7072358,63.38487295,-15.88544562,26.97208197,5.658136939,2.558776505,-0.762521588,6.645615503,-2.52342339,5.239470749,2.829581674,5.795341577,-6.484140806,-1.055945549,-2.065144127,0.818574564,-5.467192039,0.296788752,-1.622776273,2.651101842
5,OKvCV8MFIaw,1,198.7680288,61165,0.328741615,0.031357214,1421.152409,1243.064225,2564.709492,0.109506518,-327.4968224,158.8338941,-65.24203103,38.46224544,22.95018462,-3.39469794,-3.796255977,12.68348905,-7.377032447,-13.56920249,-4.981323873,-7.006183557,-13.23636925,-9.091052297,-8.523522832,1.458365352,-10.28268358,-9.513929698,4.577656488,-10.89198531
6,btPJPFnesV4,1,129.1992188,41429,0.474066498,0.106793478,2037.220777,1870.451711,3934.367876,0.118052574,-132.7081926,108.6993783,-41.9060718,31.3708463,5.614756916,-1.233650283,-5.284940707,6.382581828,5.55879746,3.545245568,-2.771239114,2.044386336,-2.258284011,2.176099453,-2.457045807,1.305337535,-7.703386772,-2.271334567,-3.081769217,-0.04699493
7,Rbm6GXllBiw,1,83.35433468,25712,0.353316345,0.228512749,1713.231051,1887.290804,3577.736699,0.068734278,-77.07950535,124.4744402,-27.66916288,37.06357112,3.184726136,13.48710644,1.275019385,4.38687739,3.001767749,1.686848242,-4.621962916,4.515739581,-5.056490939,-5.703050993,-2.949871698,-3.430382113,-7.194359013,3.142900286,-3.758595068,-0.552287168
8,5IpYOF4Hi6Q,1,151.9990809,46756,0.36671927,0.043829527,1179.673955,1410.221306,2294.036128,0.064523419,-262.4134676,159.1872188,-34.29916254,31.52225948,12.37448727,5.818655167,2.645334069,7.867564096,-0.074010339,4.420253082,-0.335892021,7.452023304,1.632095548,4.99298969,-0.365775856,3.847377598,0.71026934,5.562677795,-0.821995768,1.875133333
9,ASQTE9axcxE,1,75.99954044,23025,0.298047261,0.041171271,1895.697155,2003.144569,3727.644126,0.108674702,-262.7594287,103.5587023,-12.35841434,33.06439903,-10.21855565,0.357934295,-16.12221198,-6.260189082,-14.56013692,-1.519372014,-16.00422581,1.609421973,-9.339198416,-5.595758805,-16.00316118,-6.571882539,-8.72778862,-8.552604206,-9.150081631,-2.174431565
10,O9TunCtR3dQ,1,117.4538352,36927,0.355453354,0.227674365,1319.371467,1600.647107,2680.883789,0.062235451,-186.7168008,125.6638266,12.07592031,51.23264066,28.53454937,22.29937455,1.893675617,15.61607425,0.783848605,8.507803662,9.805711429,6.279256298,-1.682241579,1.386290262,-2.06888713,0.685777672,-14.94615792,-0.394127097,-5.673907922,-4.367099124
11,qN5zw04WxCc,1,103.359375,33626,0.354004053,0.130645856,1972.987651,1843.478315,3783.085458,0.105412817,-126.89122,112.6445064,-43.34307868,25.70925203,-5.99948792,-1.329189051,-3.760681949,-3.507698306,-2.210699716,-1.618482025,-3.367863426,0.389790907,-9.392453022,-8.554413035,-6.916922478,-3.22483207,-7.351902237,-4.20007499,-2.898864999,-0.742337057
12,pAgnJDJN4VA,1,83.35433468,20010,0.447558815,0.137297153,2410.619356,2404.158268,5156.568819,0.114913893,-133.9734262,67.61566983,5.582987089,27.7076211,3.265186708,16.50646052,-0.156252937,5.336609778,-3.362661204,2.945393383,-1.489050078,5.20424262,-0.117077292,2.993498032,-2.869141153,-0.399699196,-5.678970525,1.631171531,-2.923098931,0.777560474
13,aSNJ00iAZ7I,1,123.046875,33444,0.339406707,0.103282891,2240.205964,2150.093808,4608.930464,0.106884841,-160.8929637,90.07333793,-10.9459118,26.180798,-2.429980028,4.98698404,-7.827103947,0.531837346,-2.71203463,3.908341011,-0.398816443,5.322402518,1.528018047,3.711339436,-9.572188811,-4.542133239,-1.267304172,8.280306122,-0.702404299,-4.716710215
14,ZiRuj2_czzw,1,161.4990234,45432,0.243694945,0.121259965,1490.62326,1696.6929,3235.138771,0.063267947,-211.7023278,103.2752477,-2.222746205,38.86191753,-4.29772238,9.217808478,-7.971550603,-1.322515267,-0.694615299,-0.998596499,2.613888211,2.414184537,1.412066205,2.4498342,-6.019993626,-2.458639221,-8.694225668,0.171654949,-2.990874464,-2.798596747
15,r5EXKDlf44M,1,80.74951172,22433,0.372112015,0.168899566,1788.975758,2158.772119,3883.659849,0.07055853,-112.6482016,109.6781106,-2.282315637,32.37363719,8.175716855,-1.050841641,-9.51898685,0.526860233,-0.92702479,-3.355702557,-8.711332971,0.057848139,-10.27496302,-8.244146245,-8.429797971,-2.268819462,-11.37419977,-7.34448835,-6.508207267,-3.859978107
16,6dc56W_bnyU,1,112.3471467,34071,0.416308492,0.078762755,2403.705434,2045.761128,4631.08033,0.137341195,-134.6801572,96.68450851,-41.27093072,54.36094862,-7.772899934,4.800797647,-1.738271654,6.007545741,3.52480886,-0.963850823,-7.447130546,1.205706682,-5.489695489,-4.852065774,-3.50220816,0.087921648,-4.081208737,1.539682257,-3.143879101,-0.277098028
17,ohOtDA3dTAA,1,129.1992188,39132,0.411037723,0.175790131,2734.876752,2403.742178,5411.06728,0.156307445,-50.73947221,74.63739006,-8.800849517,43.85557198,-5.026878436,6.897535944,-5.724977913,5.445519585,-4.123736277,7.836130152,-11.48292615,2.761175095,-9.354696468,-4.78938375,-6.52102538,-0.700661155,-8.534774762,4.536294084,-1.914084763,0.627543548
18,aeZnkEMIxBM,1,95.703125,26723,0.390757022,0.06472265,2113.693294,1776.21293,3959.767722,0.14229657,-186.910985,102.9606984,-61.11302199,18.83524797,0.851401126,0.43474848,-6.219162241,-4.586047315,-6.124620493,-6.820944052,-2.540407839,-5.981795932,-5.302846683,-2.695834023,-5.938475367,-2.496662652,-5.614411598,1.850935541,-4.924191587,-0.052166635
19,4YSYDYiKmGA,1,71.77734375,21091,0.454777789,0.083357215,2004.187834,2043.868493,4152.433224,0.102981237,-176.5970855,103.8982219,-23.93633827,39.79734988,20.34381755,-3.070751203,2.568372062,10.85787692,-4.923159132,5.178733217,4.704760401,0.393803026,-9.425288415,-4.60267122,-4.398991292,4.112997372,-2.834352756,0.737767733,2.563452996,1.47052581
20,ldNLO7pvmgo,1,135.9991776,38942,0.421955397,0.089072712,2739.79792,2492.586057,5471.575247,0.150334314,-184.9301245,69.0197716,3.148346449,22.72955924,14.47947897,12.22895004,-4.341154987,1.705208612,-0.094873075,6.096989625,0.861280127,-3.081346576,-7.798495923,-1.82775559,-0.695214702,-0.66853432,-3.20333654,3.989960969,-3.412360357,-1.731181542
21,J-0KRM_eROA,1,123.046875,37328,0.333795013,0.029859507,1776.550862,1887.860223,3358.688024,0.079022198,-331.181249,91.13081706,-3.592583911,38.78255148,25.9110152,10.59261135,-2.955764226,5.131555893,3.703943637,5.46110921,-8.572778875,-1.624774033,-1.785429963,2.614211013,-5.567352157,-4.468489603,-5.813432961,-1.657342119,-8.776682833,-8.058036816
22,sfR_HWMzgyc,1,135.9991776,19182,0.501709677,0.18313159,3021.154025,2714.516586,6213.854092,0.132369948,-77.77026967,49.36720042,6.774783877,42.37415803,9.784681713,21.72829782,5.111839302,6.566887707,3.900834439,5.421481117,-3.218632896,6.506648695,-5.232910108,0.908440155,-2.108022238,1.755466397,-4.637615487,2.90160682,-5.895647604,0.70735538
23,Qq4j1LtCdww,1,117.4538352,36207,0.419710414,0.054787274,2087.240304,2533.187673,4730.188064,0.072998803,-198.4588252,99.46890043,16.55707934,27.1021376,-0.494914008,6.263825977,2.171716966,6.523525438,-2.085988455,4.809923673,-1.634887048,5.473426134,0.692473258,6.631400557,0.691419391,3.680225877,-2.951313323,3.305091404,-1.134003031,1.725427966
24,xfWPqRtozh0,1,117.4538352,36809,0.3623068,0.157870665,1213.772737,1699.525638,2559.309524,0.040216688,-180.6522993,144.4459928,15.29863147,36.31584286,15.57166276,10.85264447,0.693691278,6.47662576,-5.27640082,4.58867463,-1.651060224,2.186150101,-1.171111391,-1.66597269,-2.195499667,-1.02669667,-7.230601729,-2.699588462,-2.610189209,-2.063664161
25,Rbm6GXllBiw,1,123.046875,39293,0.37374438,0.207589805,2286.414842,2446.868043,4951.670058,0.097903414,-67.17101209,81.46902034,2.365908883,37.06920275,10.33142239,19.64545294,0.700407433,2.698393136,-1.827154575,1.31343066,-4.269201485,4.475467007,-3.586845349,2.472579297,-5.005381129,1.40886876,-4.278713262,0.937918916,-5.830935027,-2.267624208
26,SVFU4qc7nhs,1,143.5546875,40051,0.412982621,0.041862596,2349.06982,2334.289279,4815.070884,0.110652392,-237.7821967,92.72299201,-3.755787279,35.27002057,6.032033965,4.988902244,1.795755557,2.23820687,-2.229732292,4.311723699,-0.742318056,2.83907233,-0.986797439,-0.340094639,-3.4604358,-0.462694526,-4.684714118,-3.536059001,-2.655209039,1.445803071
27,3T1c7GkzRQQ,1,95.703125,26723,0.390757022,0.06472265,2113.693294,1776.21293,3959.767722,0.14229657,-186.910985,102.9606984,-61.11302199,18.83524797,0.851401126,0.43474848,-6.219162241,-4.586047315,-6.124620493,-6.820944052,-2.540407839,-5.981795932,-5.302846683,-2.695834023,-5.938475367,-2.496662652,-5.614411598,1.850935541,-4.924191587,-0.052166635
28,pkcJEvMcnEg,1,103.359375,28523,0.426390847,0.089843914,1927.773304,2304.278919,4155.29154,0.07281702,-209.2423428,100.6499564,7.996232489,30.48323583,8.112562774,10.67639277,9.371049445,9.699548528,0.158980887,6.233959898,1.816812897,5.315317032,-1.164428406,-0.122644253,-3.049004778,5.179511339,-3.916707036,1.561749333,-3.852994609,2.306948396
29,NbOCF9zYgHc,1,135.9991776,43468,0.33611892,0.082403436,2243.466476,1976.2747,4301.098992,0.122761918,-135.4144765,84.91189374,-46.23869094,21.85375677,-19.37932482,8.589341615,5.493064749,-1.228485074,0.578261743,-7.648175288,-5.614912632,-6.692246318,-6.957362029,-4.121311144,-11.21163488,0.905723786,-12.47388957,-5.328932496,-2.08050866,-5.542507018
0,_ovdm2yX4MA,2,123.046875,37754,0.348404021,0.190229192,2926.953311,2691.831228,6146.412833,0.134564946,-41.26583759,63.01857937,-2.142613776,21.99784253,-10.47852338,5.517624879,-10.22946772,3.470211642,-4.852968325,3.482605246,-4.178923043,6.067023807,-3.530067905,-0.40153791,-8.971133087,-3.568127884,-8.105670468,0.376540511,-3.014180668,4.052127424
1,p-Z3YrHJ1sU,2,129.1992188,39772,0.231525078,0.318571419,1629.560205,2348.291032,3751.243983,0.049092296,-118.3419358,108.1017649,28.56382231,18.18368331,10.38883844,6.618748774,6.547177466,-8.176758126,1.833217136,11.3626727,-22.30390683,4.668971092,-12.23275962,1.936667303,-7.372529998,3.124686213,0.219731482,8.17851976,1.166163437,3.662424143
2,DBRf2Wc3bRw,2,123.046875,38695,0.37667563,0.110339612,1917.333456,1676.854822,3405.196076,0.117460363,-135.722932,122.257451,-57.43176313,10.47794456,3.378369693,-2.192582676,0.470045002,8.092464974,-0.802761764,-0.22499361,-8.909404385,9.402488419,-3.192552481,-2.165844325,4.587552226,-1.218402915,-4.839944394,-1.091634615,-9.283810658,-3.168362136
3,vuJ2V-9GhBo,2,117.4538352,18406,0.389164522,0.148818925,1988.073499,2034.813557,4139.174971,0.100999011,-60.77342018,126.0869711,-29.00937149,23.32883096,-6.307705007,11.58239053,-2.192941623,7.183139257,-3.078317134,6.560168168,1.5909268,2.909662649,-4.360458942,2.547463768,-1.351529499,6.262061911,1.814199816,6.69516736,2.12406625,6.533468241
4,Dr1nN__-2Po,2,86.1328125,27131,0.305628169,0.179342493,1573.440598,1905.925277,3016.806758,0.072790565,-80.43868446,136.6872267,-15.33296971,18.35711197,0.120305403,1.115901069,-0.637713069,2.190052941,-4.010181846,3.299979921,-7.834874285,-2.176090328,0.58166148,2.808529063,2.062969795,10.65594846,4.463935074,3.785953371,-4.717833616,6.198689021
5,_o-XIryB2gg,2,86.1328125,26974,0.327216686,0.18298699,1305.127262,1792.900333,2479.851671,0.057445231,-141.186702,148.9258352,15.22077331,17.76826547,11.53634375,9.978611986,-1.431833858,3.41945229,-8.170580653,8.551021028,-3.865322058,0.775104519,-3.495714784,0.749182236,0.013947898,0.088217105,-0.446438885,1.296135611,1.321007583,7.26940706
6,QLoUH6LN9lk,2,172.265625,53682,0.327349952,0.134121478,2817.242815,2665.656465,6017.996943,0.137835523,-42.67383981,76.52018674,-6.876535489,16.12785424,-10.88238819,6.614653809,-9.960977238,0.97650139,-6.063626303,4.989324115,-2.940411761,0.926426026,-12.05549078,-3.445099939,-9.502750272,-1.207830866,-3.881129772,4.902253459,0.435460557,5.645521549
7,McEoTIqoRKk,2,89.10290948,25522,0.401479197,0.245564565,3602.669578,2919.649949,7230.589611,0.203803756,17.24737928,45.07294273,-6.475349902,5.134878337,-14.95255636,-10.34386884,-22.48172152,-9.336091344,-19.91830921,-10.37489326,-19.83000148,-5.731479618,-8.150905593,2.210958002,-1.764751287,8.182240324,-1.769836212,2.696287164,-3.241922871,1.173502485
8,lETmskoqh30,2,123.046875,39315,0.309662419,0.137688532,2607.148951,2602.788862,5303.067933,0.120314087,-124.3790963,80.23315112,9.509820399,25.5648164,-4.343750129,3.872524109,9.270352576,-9.351754218,1.14376726,-7.689090644,2.192266417,-4.262428003,1.870477251,-1.500412158,-1.13949337,3.03107259,-7.525122057,-1.927077635,-7.160254501,8.845352931
9,Wb5VOQexMBU,2,129.1992188,39053,0.444609854,0.280330181,3114.143656,2490.73788,5862.197885,0.171449833,-43.54941034,38.12051464,-43.73727999,-8.230320704,-29.32211072,-4.757800511,7.748382446,14.62614668,-6.748275325,3.426441921,1.740344466,4.742772851,-5.099758911,0.836355376,-6.877858669,0.155843317,4.605811742,9.319524905,-0.42047411,1.411911631
10,EpbjEttizy8,2,129.1992188,34333,0.387741819,0.211860403,2357.035262,2385.924873,5214.26847,0.110606285,-71.12100327,95.64476758,-6.487852366,20.15771955,-0.024496239,8.198285345,2.406047329,9.926476205,1.778252008,0.991070923,-2.448288037,0.40926944,-5.303152957,0.581526694,-0.48547943,5.881449193,2.233798335,6.440221675,-1.956475605,0.293622533
11,hRgcgcTP7nM,2,123.046875,37613,0.401298173,0.170280263,2114.892313,2143.92008,4341.057084,0.090990002,-159.1580067,76.28819967,-5.237709529,19.62045702,3.647597197,5.291194004,-5.125122385,3.123227548,-0.140064483,5.00632852,0.883600623,2.757780731,-3.280223153,1.746091396,-2.074169634,5.937307504,2.706918473,3.7978191,-0.110370207,3.187408552
12,JB0CFw3Godg,2,129.1992188,39547,0.347180621,0.221728563,2225.72417,2229.348692,4617.130414,0.104538672,-60.79078309,103.3032847,-14.68778606,5.807147507,-9.299773508,5.298139467,-6.018038732,6.387649943,-5.437829624,4.536822647,-0.540209491,1.951758395,-5.605244,-4.033189831,-9.938616349,-4.097444027,-5.386548426,1.22576357,-1.174461422,6.316738402
13,FpWubYTW7BA,2,123.046875,34009,0.662032799,0.146619231,3345.670631,2020.544991,5290.984673,0.290192879,-229.7915961,23.20650016,2.751899066,7.705483491,2.667944311,7.05051143,0.592241072,1.233664336,-4.424474303,3.844686422,-1.993063489,5.104359102,-0.704537649,3.804674534,-0.10087253,2.593827675,-2.314341263,2.548137246,-0.447121403,1.895629198
14,aYUY0q6dwoY,2,123.046875,20213,0.384687956,0.139561325,2703.089186,2551.099548,5544.96647,0.12788736,-143.1031873,71.35450567,-13.6052568,5.902625732,-3.952715328,-8.580548668,-7.520278679,3.266035461,-6.490128471,5.737995599,2.377051747,5.500325136,-6.372605521,6.027997825,2.188987455,10.4506149,3.476247175,9.410486241,-0.647829667,2.669941974
15,1GHCYI78ewk,2,123.046875,37947,0.641578048,0.29123354,2920.888783,2239.106319,5148.210536,0.162402268,-143.0597905,42.62502095,6.090119866,33.39656017,17.39158423,21.64726226,1.770883768,7.588263285,2.509264446,8.439137245,3.955234111,8.560495133,0.849906018,4.606260282,3.263163689,7.781912271,1.355766147,3.249814728,0.34905629,6.869514068
16,W9P_qUnMaFg,2,123.046875,34712,0.484869941,0.123385742,2364.609819,2368.39998,4903.803681,0.091844494,-184.1270361,82.71176716,4.147068461,23.58593672,9.115961218,18.73870412,3.52612099,6.227154993,-2.701117303,-2.103848154,-5.839498158,-0.379997689,-9.141372016,-3.892400681,-10.43367832,-2.06833942,-7.001507989,-3.761219354,-7.257230597,-4.417695764
17,ofmzX1nI7SE,2,117.4538352,33434,0.393588641,0.270139158,985.3417579,1535.209628,1946.288231,0.030014558,-170.7582856,141.2019632,13.27640845,38.97479618,21.40367284,20.10219146,8.679465111,9.619261007,4.520237455,7.816327217,3.497976578,4.238315151,0.363931299,4.728945437,2.167364311,1.766365845,-2.759877689,0.694111994,-0.564021741,0.890354045
18,3Qq7kNjg-KY,2,123.046875,34579,0.509646692,0.328519046,3478.94141,3083.767575,7181.098244,0.140208147,-22.95465028,44.82627947,23.36950972,20.50662945,3.141806614,18.87455871,4.872730944,15.18334531,5.263333074,15.91805501,5.709702579,11.6023671,0.537727611,5.735241512,-1.105856811,3.10764468,-2.604866793,1.326579037,-1.918687087,2.7239028
19,Px_KohohYT8,2,129.1992188,39137,0.535128661,0.238464355,3387.492236,2854.612229,6868.100136,0.176213598,-14.7200493,47.73761647,4.697839264,25.85328362,6.517941075,12.92394362,-0.329580293,14.00945081,-2.608869487,7.666946774,-5.639200204,3.746840642,-4.319333981,1.427143899,-4.277253392,2.509356634,-4.21537568,3.069317667,-5.768628462,0.48334653
20,o3WdLtpWM_c,2,123.046875,38213,0.637472104,0.232813597,3139.682035,2581.010988,5658.290785,0.196771297,-186.3668802,46.90896655,29.26777503,27.14398055,8.182927423,20.74432325,3.515650158,8.183528865,0.341699101,2.895540621,0.434557005,2.175454983,-3.329741818,0.103151435,-5.628476801,5.298272761,-0.789482132,1.471646329,-3.074833305,1.901920172
21,OhWqfZPrQ9c,2,129.1992188,35060,0.46562342,0.253352165,2538.06982,2312.779887,4992.628144,0.140861582,7.688080467,80.29586505,-35.53885188,18.27549726,-1.29338489,11.06904343,-6.595606089,2.123742857,-8.810865779,2.826819652,-6.713903619,-0.642954526,-4.838273028,0.355801406,-4.4331393,2.737899705,-2.86902593,0.363798455,-5.701039849,1.121054846
22,VXgbiugVyxQ,2,123.046875,38311,0.518858186,0.284497231,2178.636176,2335.306117,4648.255226,0.087195996,-126.0805194,72.9195128,8.109641072,16.42149735,11.94109412,18.71199495,8.920177622,11.34773402,1.714703304,5.651019541,-1.422659433,4.451606901,-1.618429853,4.454622612,0.146802562,3.430810726,-3.063995764,2.715473571,-1.743987265,3.731746283
23,8uOz_IpMBao,2,129.1992188,36693,0.469266552,0.261334062,2375.964504,2402.839165,4914.41195,0.10054361,-42.22109159,85.30034974,-29.06903261,4.534426275,-6.927626632,13.87097823,-0.788381109,7.050603468,4.810333572,-0.704355165,2.222878747,2.67491232,0.021650933,0.985879984,-4.244305751,2.612404457,0.264528355,5.731837189,1.62427241,7.851484692
24,p9j8RGTqju0,2,129.1992188,40321,0.292373098,0.099346288,1486.90471,1682.784079,2915.224039,0.072273184,-159.6037279,140.5115285,-29.31800975,27.11740074,-12.04124474,2.70897928,-0.27884166,4.063159223,-7.799478794,3.980609864,-6.822492024,2.61012748,-2.573318891,-0.057145207,-5.026306773,0.890864583,-4.499809142,1.276365167,-3.747199416,4.379305481
25,d3oRyaACTs8,2,129.1992188,39618,0.345623058,0.120203853,2560.592474,2311.101404,5047.21948,0.12288928,-101.6452159,86.34974866,-36.84569934,-11.20189745,-24.92935386,-7.77341609,-10.21303944,6.588108222,-0.856373063,5.954895282,-2.39907062,2.967822141,-2.662150418,1.580790848,-8.201155806,-2.214655211,-6.337258657,-2.606249786,-8.64608429,-0.391971616
26,RZYav3Z3wDA,2,129.1992188,28177,0.535387012,0.332141548,2578.440349,2945.574066,6154.079454,0.049198871,-114.3934302,49.65132547,35.15439778,15.47155454,17.54710501,32.17696695,17.09327724,23.38297042,12.34509134,16.4843063,7.31239903,9.956935194,-0.218496686,7.431548358,2.548394722,3.914116252,-0.554464955,2.490308299,-1.886051072,3.569630972
27,ogUYjxeGkI4,2,129.1992188,37193,0.338504063,0.177765414,2094.113225,2155.894018,4232.299408,0.107868962,-100.337617,95.38110613,-1.549737731,19.07437103,-5.876162257,4.332181949,-15.32970116,2.629187766,-10.91368167,-0.801270767,-3.772918157,1.726120072,-8.304135237,-3.336630284,-7.982316168,1.97676779,-5.981800676,1.003933881,-2.90745629,0.284283345
28,AZAR4GXBgVY,2,129.1992188,38915,0.479931303,0.145452991,2757.030397,2565.369633,5367.675876,0.122034787,-189.5619721,75.50278942,32.90294797,15.98052003,12.61347295,12.5198557,1.469013877,6.892616673,-4.513626297,1.575369137,-3.883521538,1.30063694,-4.251153572,1.382630614,-0.981042263,7.501526141,3.611735876,7.246114778,2.823595815,7.721325235
29,eq3PGCPQOOY,2,123.046875,36562,0.433704728,0.153340176,2029.712186,2018.683434,4104.566847,0.10933494,-127.6324905,86.27688099,-26.82478807,20.5583196,-6.778150927,18.51520831,-0.389309042,8.883304313,-4.991305913,3.534364007,-3.990245781,-0.318892851,-5.615168319,1.695233006,-5.404840169,-2.585040591,-1.073776356,0.944471996,-5.59639338,-2.789730967
0,P2l0lbn5TVg,3,80.74951172,23136,0.277541037,0.091002852,1179.295185,1246.612144,2161.720262,0.065778892,-198.8251733,153.6391675,-41.3503277,20.24152679,-15.63692371,-2.096773184,-12.77261011,-4.465486984,-8.167093472,-4.894085991,-10.04667554,-4.545680109,-5.16052142,-3.589367464,-5.687927339,-3.344257773,-5.520660349,-3.590248862,-3.406133853,1.103477484
1,axb48YrvRmw,3,117.4538352,36205,0.331563878,0.050451569,1228.11088,1360.155169,2177.136835,0.07806302,-291.9619131,160.8721658,-9.93218602,18.13022707,5.815143221,-1.017033507,-6.355326447,-5.993051483,-5.715575617,-0.495027969,-3.189104184,-2.482225887,-2.800238094,-2.845478358,-2.962305203,0.187226048,-1.202747995,0.320093994,-3.401460611,-4.422502964
2,pIf2zL6aCig,3,112.3471467,31888,0.181530213,0.029995145,701.0029874,784.9140691,1043.352024,0.04729601,-426.2601358,160.1461886,18.55782157,-8.994395797,-4.464678956,-8.058877501,-10.99073196,-8.576584722,-9.026651679,-12.04468178,-9.924120746,-8.368299366,-11.03515515,-10.96819325,-5.444745955,-2.898441567,-5.19694259,-4.709303296,-2.341446498,-3.017521076
3,d_92G-Dgscw,3,135.9991776,40194,0.266256092,0.057157394,1929.888087,1878.59265,3696.494314,0.106939263,-214.0020345,107.4324692,-32.21809581,40.10753009,-11.51954993,5.847383045,-15.02523718,8.732564754,-6.537778663,14.86970675,-8.762595944,12.37998057,-3.976746947,8.520167963,-0.956638891,7.420720474,-8.825902462,-0.227112209,-3.166594269,2.108223032
4,QmaF2fvRfhg,3,129.1992188,35311,0.157907721,0.046550062,644.0882172,682.0095953,1005.368921,0.044317948,-410.5398733,163.6164477,14.15634236,-3.961827199,5.694061607,-2.765299788,-5.176967819,-10.82624071,-13.0761452,-6.113420323,-0.968787015,2.3574357,3.10874114,0.220477648,-4.455675846,-4.269471104,-1.359576825,-5.368775541,-11.23252217,-6.106938092
5,y57AWXLMpGU,3,135.9991776,42657,0.231504312,0.025823507,651.2985812,667.8988179,927.1277271,0.052708676,-428.8888843,200.0058439,22.56707985,-12.82199404,-3.236792836,-7.737635314,-7.837702923,-1.811219799,-0.640782664,-2.722756428,-6.958885794,-8.350247488,-2.826696007,0.190222716,-1.943449532,-4.938824468,-5.120004734,-4.247603381,-4.786403173,-2.523462265
6,6-eqYk1j5to,3,135.9991776,40652,0.283568965,0.023680286,1571.18588,1643.194001,2905.68243,0.088166889,-365.2428441,135.9307572,-20.46380116,17.70935322,4.123907534,-13.93214807,-1.710165362,16.71457173,-20.47459154,-4.550136587,5.236518305,-4.164379664,-4.993199589,7.118431419,-2.000589264,-2.544443509,-7.664666435,-3.787137824,-6.917303523,-7.164203556
7,nj2GILDFiE8,3,89.10290948,24296,0.195511637,0.051508505,690.6332653,872.058537,1192.209458,0.042553409,-351.2162321,144.9900644,21.75283692,7.687998627,8.461478357,1.305090609,-2.31083145,-1.39450981,-1.559571608,1.339197848,0.896679149,4.779973266,2.526123933,0.40816497,-1.041197641,-5.701240509,-7.205910552,-3.248398245,-2.712427878,-6.31367203
8,CJCx_SCafTg,3,63.02400915,12364,0.199318324,0.043406963,681.1529963,811.5534546,1169.117931,0.041562107,-371.9574008,151.9670865,16.55987803,6.499066018,12.02206928,2.403595975,-5.931855825,-8.18573956,-6.282553189,-2.399648878,-4.036600063,-3.612172123,-1.530775467,2.101912846,0.434115915,-2.275736353,-2.662060281,-4.685518687,-5.618043951,-5.69205493
9,CssLQR46HAw,3,89.10290948,24546,0.211811319,0.043829195,750.1953083,914.8775305,1342.25855,0.042681904,-361.1285949,150.0135714,4.809053998,8.533136062,9.173548778,-1.075366159,-3.998976983,-3.709089905,-3.76370025,-0.850657338,-1.739793748,0.163706335,-2.967869145,-5.903583057,-3.932139921,-4.608888335,-5.12898988,-5.715049094,-5.343080087,-2.114005488
10,9E6b3swbnWg,3,83.35433468,6994,0.215851509,0.058866803,743.3273072,986.3315384,1178.701206,0.041916602,-359.9666519,149.1398886,11.92510724,9.11691703,3.771063277,-2.169467775,-4.351661879,-3.029721266,-3.061775225,-2.445615697,-5.742782423,-0.881890474,-1.040009656,-1.991019814,1.469256003,-0.134008538,-0.935807237,-0.147774558,-2.722234584,-3.472702014
11,rrVDATvUitA,3,172.265625,46227,0.144867887,0.051456794,1439.682085,1552.04021,2603.667589,0.060950879,-383.1594307,63.74474815,-28.5801671,6.085567467,-17.70936732,-19.85647319,-17.56487007,-9.704268733,-9.913478105,-13.15403789,-20.70062037,2.998788368,-1.621469236,0.921959841,15.62880907,19.2499039,15.83220447,11.05481738,7.804402466,6.325870573
12,3cvmONlV5WU,3,151.9990809,46319,0.276430017,0.035560023,1345.724036,1395.059716,2464.185099,0.07711329,-293.6283514,144.0880316,-36.68878631,20.24681468,1.140750998,-8.381925982,-8.616196236,-0.789307649,-12.26839672,-5.99490593,-5.355951222,4.950247637,-3.456547276,-2.507033185,-4.989261031,-4.712788043,-4.887328098,-2.550239076,-1.321502854,-1.177167304
13,quxTnEEETbo,3,123.046875,36138,0.24054229,0.078759991,983.0660259,1156.340888,1849.163818,0.053987958,-266.4539288,149.9932524,-6.766209739,14.99628304,5.453021317,-4.979818526,-2.269914292,-1.818628251,-3.858357915,-2.686503347,-1.656334111,5.83111375,0.630575053,-0.481266013,-2.09872589,-3.600950637,-6.324344226,-7.860084845,-8.829820062,-1.609294378
14,Uau48wh5CeI,3,129.1992188,36904,0.286866957,0.040175881,1249.325994,1499.576654,2317.41932,0.069892246,-294.8100701,162.1616103,-7.42123865,12.64345749,-3.577277988,2.070967232,-10.88768109,-0.393903798,-12.41576548,-7.033923851,-6.497639951,2.475794885,-5.588591159,-0.57987343,-10.01191,-5.355213802,-6.663173037,-1.871678913,-6.439910424,1.99669448
15,eY-3rOrxNBE,3,172.265625,55614,0.233760854,0.057524785,899.3692731,1264.48816,1531.840737,0.04302166,-312.1453946,166.8695522,7.273244101,15.99099547,6.995027421,5.556508943,-7.373814301,0.377780258,-6.781606089,-4.156878266,-10.09631311,2.133051953,0.892376357,-4.452783922,-3.585952136,-2.349046246,-1.291779976,2.512551601,2.901041311,-2.341526521
16,yc0_qhkZ9iw,3,143.5546875,39543,0.28299803,0.091284759,2203.78537,2233.483292,4549.555823,0.106179252,-137.7823504,94.3338819,-14.84934256,31.57169699,-10.55340322,2.23464163,-9.735743263,2.88420353,-7.361548126,0.481999473,-13.83715023,-0.154841683,-6.113863236,1.29093176,-1.319537381,3.600497939,-3.831378463,3.781781041,-4.593684987,-0.552113588
17,jSQrkiSO9DI,3,103.359375,27847,0.184365794,0.025987525,474.1834993,480.7520168,696.2874563,0.034149075,-445.7847149,144.1288824,31.97687843,2.566844817,4.005840909,-6.333209923,-11.56874055,-9.71856356,-7.916098781,-5.717193931,-5.053318478,-8.187489503,-9.931999545,-7.228851468,-5.149719168,-6.112537787,-5.326075108,-1.877421113,-1.694970902,-3.580416327
18,GGatJptdRfk,3,75.99954044,23040,0.338463228,0.041756984,1911.759021,2001.75895,3673.902784,0.099370903,-216.8469529,114.069111,-26.24833383,19.59920177,-3.482686758,-5.117101001,-8.915121741,5.332372523,-7.373296835,7.767092594,5.215761275,4.279028652,-0.740357781,0.654009157,-6.22968845,-2.309511329,-3.066766361,2.725708648,-5.274502565,-3.112400255
19,#NAME?,3,143.5546875,44936,0.261113442,0.038517796,1557.123465,1498.709864,2911.807393,0.086442032,-297.7737509,136.9945881,-45.86698556,18.81687782,-10.04152433,-18.31939058,1.517332852,-8.418054831,-5.976318618,11.34408588,-6.831851101,-4.702233919,-1.866091798,-0.629479976,-3.370227462,1.847080512,-2.949552948,0.883632002,-6.234572103,-2.603672427
20,aC8ejCX_BzU,3,161.4990234,45136,0.224453586,0.032294948,687.0083035,784.4298094,1061.918579,0.048724195,-388.8057014,203.2666355,8.47553509,0.465542651,-0.311709871,-5.891464163,-7.932584468,-7.930668831,0.356967187,3.415103872,-1.670130765,-3.848921841,-4.02217988,-5.049131095,-2.068856748,-0.801976061,0.596506455,-3.63762696,-9.269764669,-5.843066379
21,APNI2CC0k6A,3,107.6660156,25592,0.262043603,0.019482031,1637.136406,1630.353563,2909.56574,0.097872802,-371.8995203,127.9006759,-34.69797297,18.7752655,-5.137966963,-12.93793192,-4.884080006,-0.551551244,-22.60420728,-6.965263866,-5.73674724,-4.20394722,-4.238822248,-6.97260589,-14.95249842,-8.938525423,-14.21601733,-9.53162814,-6.971113638,-5.233535777
22,phBThlPTBEg,3,143.5546875,45086,0.302201307,0.08354114,1742.255452,1733.76896,3192.989026,0.097100698,-172.9454355,127.8986002,-41.20415208,19.15645889,-4.509776677,-12.4400801,-12.05700657,-4.302735646,-14.79824658,2.178669885,1.559517561,0.105785611,-7.324323653,-8.01738,-9.505500507,1.48952499,-0.00931291,0.009888492,-3.324329604,-1.516713293
23,NqAOGduIFbg,3,184.5703125,59974,0.283917542,0.014432695,1331.587798,1413.102455,2634.567402,0.076575879,-400.9223366,145.1838001,-19.26055044,32.25530494,-0.717619788,-16.89417116,7.305227134,10.26362533,-16.06509302,0.736232989,-0.823129344,-3.31034957,-0.812080104,1.93089248,-2.949910307,-4.929931989,-4.533848766,0.086125565,-6.429526925,-6.893722142
24,vAeRzW98IFw,3,64.59960938,4805,0.339521349,0.086499892,1101.665757,1294.520603,2095.79566,0.058001161,-238.778777,148.0399646,-16.78600339,17.44118285,-6.212722305,-5.728285137,-8.635600092,-1.524453578,-13.53904959,0.239910386,-3.652120296,-5.917815348,-7.166095857,-5.292349785,-7.582162167,-5.954306597,-6.943038857,-2.481337073,-11.24326977,-6.0711572
25,EJC-_j3SnXk,3,107.6660156,31616,0.270521032,0.026594203,1271.468085,1402.828713,2434.393613,0.067785304,-339.9056172,146.110114,-31.49462785,31.64778851,-1.473311526,-2.130188419,-5.802081913,-6.396163264,-3.465862337,-2.06815433,-9.884665619,-4.559291333,-3.719828594,-1.725034968,-0.908024022,-0.621676865,0.817262742,6.508315073,-2.367067662,-5.868984749
26,YuBeBjqKSGQ,3,107.6660156,32634,0.262666958,0.049360264,1540.331889,1626.403887,2824.07459,0.087861525,-237.4583295,125.1733897,-35.19238838,16.94337448,-5.937865437,4.414608732,-8.738122002,-4.354227095,-15.25499994,-0.397587129,-5.951065184,3.601138418,-3.244753927,-2.855176465,-5.76024237,1.993563234,-3.472990477,-0.764013527,-12.34972002,-4.64977399
27,FItvuYc9VRw,3,129.1992188,39365,0.285719082,0.017745467,1250.39693,1257.764329,2152.561984,0.086950721,-408.3747477,166.831455,-23.34807059,8.566622026,-5.861359705,-8.311379025,-11.65049282,-10.68667469,-10.70878043,-6.646381109,-9.200666075,-0.741836183,-3.155269366,-2.891559788,-2.207788373,0.332207538,-2.208147253,-0.525065075,-3.508708631,-3.70363839
28,afhAqMeeQJk,3,117.4538352,29078,0.374927103,0.050453264,1664.681965,1739.391455,3252.93033,0.105359151,-235.283985,139.0040413,-22.56652189,21.09537208,-12.18869577,-1.697359191,-14.52619589,-2.453263952,-12.22203582,-2.972554965,-6.474078991,-3.827981425,-5.273015033,-3.263990218,-6.24343941,-0.545975109,-7.452312579,-0.77560025,-6.699249528,-3.739335304
29,aJIpVj_YkNo,3,172.265625,54675,0.237740919,0.029355217,1351.980772,1652.172647,2382.152262,0.079918262,-367.7994353,137.3636757,12.32580711,22.08056998,-0.318819885,-4.676219664,-7.669303792,-2.71335695,-7.725999752,-4.19515604,-8.656808673,5.208713831,0.373276248,0.391428393,-3.38017692,-2.121022518,-0.855471018,3.306908713,-11.25564128,-15.46845585
0,JGwWNGJdvx8,4,129.1992188,36398,0.357342852,0.187805697,1479.098731,1776.21973,2892.240844,0.066686294,-190.8643554,115.7937136,11.78204082,21.5666178,7.665115343,-1.393731857,-9.620068173,-9.087411299,-15.34330134,-4.039674925,-1.434868828,4.262482275,-1.228289538,1.391334274,-0.812173367,-2.900730565,-8.278714464,-3.446392771,-8.400676888,-3.816175372
1,OPf0YbXqDm0,4,117.4538352,35382,0.476521328,0.091831066,2803.976582,2408.267531,5321.459489,0.16707382,-177.6489967,62.44014914,-20.24734961,10.33357847,-2.807290104,8.376683838,-5.629020961,-1.07774146,-3.985121353,-0.241664267,-2.34759736,-0.191809507,-5.017437744,0.074062017,-3.196376071,0.985020878,-6.298626539,0.346347571,-5.188753471,2.702539294
2,vZA5heWazIQ,4,99.38401442,31457,0.27040321,0.06233478,2161.014174,2274.030732,4610.147123,0.100054195,-225.7202011,94.84996519,-10.62523182,3.90509632,3.026743181,-2.763132287,-10.39541092,10.56988434,-19.53901099,-3.525021198,-5.845932894,-12.25925711,-10.5831239,-3.590240221,-7.197559116,-3.977063642,-13.95206313,-3.611071979,-7.835653204,-5.603107613
3,CevxZvSJLk8,4,184.5703125,59076,0.397677119,0.062127717,2223.638545,2432.595897,4854.178981,0.104898459,-241.0677571,96.30213343,15.60420006,12.36239886,1.218451989,6.359864394,2.063045047,0.11424999,1.510893068,1.290582522,-7.688503649,2.477171699,-2.194403685,-1.383069353,-5.520850994,-0.903081995,-6.034917264,0.740398824,-7.455570556,0.57607766
4,RBumgq5yVrA,4,117.4538352,36434,0.376195406,0.117219485,1971.151338,2409.995752,4252.640952,0.071535471,-193.8938263,98.72300678,14.20678584,20.01076372,12.82373334,8.808526671,3.785366949,2.13742931,2.873413975,7.614372456,-2.452596589,6.130752672,0.419022896,0.17776155,-3.189559396,0.065790646,-2.456313659,0.327968578,-2.143447424,2.035149711
5,ZEyAEMA6ojY,4,129.1992188,41053,0.310485669,0.067844436,2577.124407,2706.720685,5664.007417,0.100774523,-187.2622603,78.48027357,7.758011974,22.96880224,-2.216739488,1.503658128,-2.225610326,-4.673249483,-5.074006478,-4.92255103,-11.72697107,-5.586365329,-7.502450251,0.164838151,-8.274958754,-1.879241135,-8.107231211,-2.398171534,-4.573789364,1.975435941
6,4NJH75q0Syk,4,129.1992188,41715,0.307211634,0.100015737,1729.545335,1923.69701,3444.637504,0.074084586,-175.6474922,128.3510835,-11.74286931,21.34092926,6.113668482,2.534924054,-6.969256597,0.804852171,-10.57927899,-5.645919649,-11.07242121,-5.629146197,-9.269480805,-1.157974845,-8.067278864,-4.252703098,-5.591016826,-3.144486443,-8.479013886,-4.759558746
7,LOZuxwVk7TU,4,143.5546875,45240,0.368613712,0.059247509,3190.08661,2660.370072,6169.712693,0.173229489,-224.9976558,45.22092762,-2.453099881,22.52128169,0.749535002,-1.08349965,3.910878056,0.500855844,-2.951229964,0.678398673,-2.914036528,4.472832624,-5.948184307,2.122135789,-4.124264154,0.85881778,-3.250889959,1.055347183,-4.033083479,4.722348143
8,zpzdgmqIHOQ,4,95.703125,28404,0.297726827,0.097766064,2047.493295,2357.999554,4327.682164,0.082494966,-184.292392,106.8024409,7.165630501,10.58219475,0.5977586,-2.262503215,-7.400288166,-3.663387178,-5.613166557,-1.922738945,-8.054974268,-0.552092612,-4.605080544,-2.643099773,-3.395660149,-3.101753992,-8.632811237,-4.919425697,-4.927799237,-1.769483839
9,s__rX_WL100,4,83.35433468,25520,0.358216638,0.104467481,2147.56954,2499.194021,4900.287035,0.070897153,-190.937562,85.28062825,19.41785546,28.56544955,10.97109754,14.57121989,3.418832254,9.904457216,2.638973366,6.965328903,2.507943918,4.006411495,-2.371567095,3.600209267,-0.502318307,-0.173068669,-1.053816369,-0.990584463,-7.195340935,0.613185294
10,q3XtRYPbtfI,4,129.1992188,40097,0.223304635,0.053536884,2145.744344,2434.473157,4779.85443,0.080969276,-284.7614633,94.65974914,17.09989933,8.349498391,8.918950034,0.454810619,-8.551675758,-4.063204305,-16.7091541,-5.17134973,-8.653958403,-5.512392014,-3.476134632,-2.533082592,-2.212491605,-0.885346927,-3.331716776,3.526361976,-3.045113088,-1.080997659
11,FrLequ6dUdM,4,95.703125,25654,0.337549025,0.01922686,1746.665232,2148.349005,3832.301827,0.060914976,-381.5185133,117.7061359,35.62045703,26.98791828,22.963066,15.51938595,-2.574493759,5.503113185,5.697409435,6.195056466,0.216010703,0.138732522,-2.923545375,5.312674174,-0.742366787,-0.655325843,-0.77834828,0.701082011,-7.206950918,0.688196176
12,kIDWgqDBNXA,4,99.38401442,29979,0.426425744,0.086138383,2622.564252,2426.887359,5311.451216,0.124833334,-153.1095571,64.43380127,-21.88507661,15.38663684,3.553090992,10.04643628,2.529528695,12.30923884,4.061497846,13.97130522,1.807785111,8.875536176,-1.56515086,3.557082351,-3.048440562,4.328994247,0.640604121,5.329646591,1.90400704,7.340260497
13,VV1XWJN3nJo,4,99.38401442,29173,0.332817422,0.073330775,3119.214914,2860.522848,6650.509785,0.144852488,-197.6468257,59.2278681,16.65281086,24.87401187,-1.567016976,5.944716861,-7.274265092,3.431103168,-0.082982727,-1.632522866,-2.53836917,-0.21314254,-7.412156655,2.210893492,-7.213686303,-4.672699159,-8.886176971,-3.998548044,-10.32940786,-2.013206172
14,nCzqv0Z5Gjo,4,99.38401442,28927,0.360258175,0.076909699,2270.933853,2441.250458,4960.028341,0.094670251,-177.5145389,89.71350378,2.925841524,24.66699747,-0.879163178,12.30348094,-8.065228362,-1.001424015,-5.337076806,-0.951863083,-6.126180031,1.931756251,-2.645747644,0.861963166,-5.055564442,-0.815417484,-5.821543658,-0.034485911,-5.173982807,-2.781495276
15,bboe5nbYlSs,4,95.703125,29651,0.411271853,0.051523935,1947.687532,2124.629931,3950.401112,0.092123782,-218.5930531,110.2982566,-17.68562858,9.066124023,-0.373685561,9.81850257,-0.969200805,7.412441995,1.52241252,3.603784748,1.38670276,6.067569907,1.117924091,3.881888585,-1.236973554,1.43196257,-5.280606022,2.456182676,-3.68192891,1.305191003
16,t0bPrt69rag,4,92.28515625,27320,0.255915475,0.033401567,2114.903122,2133.989264,4225.991113,0.098320645,-322.2306805,99.90322532,20.85904043,34.50488195,6.130299683,3.156128794,-11.16766146,3.735802857,-9.816542634,-5.930566086,-7.693755479,0.312128099,-7.313613727,-3.18084959,-9.66241025,-1.905864473,-8.326105343,-3.931402645,-6.118446841,-3.279061278
17,WQnAxOQxQIU,4,184.5703125,53667,0.434235472,0.052154962,2335.326732,2831.69894,5693.490572,0.075746708,-275.9859065,75.52012949,27.76790592,32.71174073,29.09538814,19.58838314,16.5533014,11.87277463,5.50446003,8.030037507,-2.069186962,8.931692866,-0.039744837,4.752672626,-4.288839222,0.986225979,-3.407771324,5.697486633,-3.970812989,0.217912487
18,0UaMsIJ4bR0,4,83.35433468,26260,0.268807035,0.059483819,2967.863738,3055.874122,6863.908495,0.127797035,-231.4797551,79.62317759,34.70564481,-4.849547119,-10.06287815,-7.462141421,-5.299473566,-12.46201207,-7.200848062,-11.11475037,-18.47073857,-5.11107406,-14.87267046,-1.536917653,-6.448450214,-0.970506701,-10.58855436,-1.050131975,-5.834997661,-3.528880018
19,pj6FCKm8dhM,4,151.9990809,38512,0.307287698,0.024503849,1927.837565,1964.046333,3828.760181,0.094358084,-276.1235777,118.761663,-37.64917098,31.97645352,-2.517816066,6.718529466,-3.246621192,-1.8034246,2.593741066,-4.592869178,-6.261218088,1.171903551,-0.2353963,9.96824765,-2.699403368,5.817396968,-1.627527294,-3.211167384,-3.291047932,0.42210686
20,XkzEyhFJBHY,4,92.28515625,26978,0.240541583,0.035263103,1411.571743,2007.856581,2744.575071,0.051780866,-356.4917201,131.3497233,19.11175279,23.91516672,1.420753433,-5.145997462,2.470180454,-0.156896735,-6.052168254,0.061326255,-10.51595676,-1.492953403,-4.894973055,-5.82149438,-4.552624548,-0.279404719,1.38940714,10.43099117,-1.399425341,-2.565434734
21,RkWQDDv_qdg,4,161.4990234,50444,0.380614059,0.089938268,2126.525505,2039.174379,4255.382602,0.107376902,-181.4550177,104.7567758,-25.00330869,24.11010532,8.593226376,3.947605691,4.362848202,1.697646807,-3.24538089,1.953245729,-4.153236249,-1.603078089,-5.216057776,-3.935030108,-5.791189179,-1.545470933,-3.715097977,2.346905435,-3.793044967,0.302572422
22,4vvBAONkYwI,4,107.6660156,30953,0.396308571,0.115649909,2193.035493,2434.794711,4786.337724,0.083519903,-147.7546433,89.446756,-0.504501517,33.45936752,8.979054412,16.89345969,8.100625099,10.64181358,6.253151195,5.614309465,-7.471746223,0.738463101,-1.233902457,4.931567998,-5.142471436,0.028196197,-2.902166806,1.543078625,-4.997432361,0.71839562
23,uESx0DhvYH0,4,89.10290948,25184,0.497669695,0.059429687,2266.019352,2350.770707,4704.379887,0.101888273,-210.9738647,91.57219438,-8.196520827,34.26637716,3.163080479,11.19190439,5.004541832,15.83384785,1.317118309,6.104216668,-4.339003081,8.036844141,-0.148335527,1.320661299,-1.351085187,2.381283508,0.433431509,1.526123306,-3.447540121,3.092968937
24,HeK1zQFJtXE,4,143.5546875,44119,0.268436001,0.089939088,1023.1562,1425.363934,1939.079941,0.04474047,-270.7147349,154.6801786,9.47595813,22.73236942,12.00617019,2.703735041,-8.10307814,-9.837563488,-4.063489659,-3.666251801,-17.20870981,-15.53881768,-12.86599928,-7.722366903,-8.105702361,-7.606439386,-7.624118745,-2.080621963,-7.746789392,-3.51690783
25,6R9fSfnxSN0,4,151.9990809,40260,0.292611454,0.114236131,2763.838441,2486.5168,5317.576179,0.173452466,-193.419413,84.59349633,18.40271033,8.999620462,0.503529502,4.93313025,-8.405093258,-2.51897928,-9.102953782,3.893756281,-7.824646244,-2.569057651,0.81593335,-4.129282077,-3.336546882,-2.293571989,-2.919517359,0.828931209,-8.147155328,1.619175167
26,ErntJrtQGBg,4,92.28515625,28242,0.427800187,0.115849026,2950.634958,2605.50696,5824.906444,0.168126345,-129.8076622,61.95818588,-1.555871318,24.81633582,0.174211416,13.81576852,-0.097004033,5.424393274,3.558884794,9.462969245,-3.753200262,4.934835296,-0.76188038,0.739436668,-1.847492624,0.090986838,-1.58207791,2.472390656,-2.461297755,1.063853711
27,Y-JmEmpZ3ts,4,143.5546875,45306,0.434293701,0.109343536,2817.405436,2446.684566,5448.942051,0.15845369,-133.8640108,64.29173762,-21.52254219,19.31667448,-6.401431219,5.574487832,-1.852517027,0.787089884,-4.583580497,-2.301311327,-5.729496014,2.295777554,-4.375915419,-0.312159656,-4.722102006,1.884949456,-5.760354672,-0.991790442,-4.546580304,-1.374067129
28,GP4Cq3VTagU,4,99.38401442,30657,0.402071187,0.101431653,2872.126218,2858.002536,6348.411612,0.121020054,-173.7407898,66.38160436,23.98623802,21.22206425,1.280793657,8.764318986,1.391203671,1.828473885,4.405877755,4.190071073,-0.751697486,2.979520288,-2.61430203,3.232454675,-3.868680192,0.970782506,-1.624409445,3.206844338,-0.778491507,5.427687503
29,Xv4NBOWhw9A,4,117.4538352,27563,0.432841103,0.034418527,2090.564702,2267.258991,4297.349015,0.087804836,-259.3787671,105.1674856,-8.893509688,24.10312074,-0.633448496,10.17211526,-2.285371078,1.577974066,-2.110047732,2.386406292,-3.826671659,-0.121363775,-5.718160046,-2.841780401,-7.003806855,-0.986800849,-5.273186926,2.19150962,-2.340608329,0.172734143
